{
	"request": [
		{
			"enable": true,
			"name": "提交pr到v8",
			"ruleType": "redirect",
			"matchType": "regexp",
			"pattern": "https://github.com/cat-digital-platform/A-cat-ecommerce-PCC/compare/(?!China_V8_Development)(.+)",
			"exclude": "",
			"group": "Ungrouped",
			"isFunction": false,
			"action": "redirect",
			"to": "https://github.com/cat-digital-platform/A-cat-ecommerce-PCC/compare/China_V8_Development...$1"
		}
	],
	"sendHeader": [],
	"receiveHeader": [],
	"receiveBody": []
}